{
  "data": {
    "totalStories": 3, 
    "stories": [
      {
        "title": {
          "type": "iconText",
          "content": {
            "text": {
              "text": "¿Qué es un crédito?",
              "color": "#fff",
            },
            "icon": null,
          },
        },
        "background": {
          "type": "image",
          "content": {
            "solidColor": {
              "color": "#7b3eff",
            },
            "image": null,
          },
        },
        "paragraphs": [
          {
            "content": {
              "icon": null,
              "title": null,
              "text": {
                "text": "Es un dinero que te presta una institución financiera. Tienes la obligación de devolverlo dentro del plazo establecido siguiendo un plan de pagos.",
                "color": "#fff"
              },
            },
          },
          {
            "content": {
              "icon": null,
              "title": null,
              "text": {
                "text": "Puede incurrir costos extra como comisión por apertura o manejo, entre otros. Un crédito puede ser una herramienta eficiente para tus finanzas o un dolor de cabeza, dependiendo de cómo lo manejas.",
                "color": "#fff"
              },
            },
          }
        ]
      },
      {
        "title": {
          "type": "iconText",
          "content": {
            "text": {
              "text": "¿Qué NO es un crédito?",
              "color": "#fff",
            },
            "icon": {
              "uri": "https://res.cloudinary.com/crecy-io/image/upload/f_auto,q_auto/v1605163542/app/Crecy%20icons%20new%20dimensions/Crecy_icons_alert_final_jogmu8.png",
            },
          },
        },
        "background": {
          "type": "image",
          "content": {
            "solidColor": {
              "color": "#7b3eff",
            },
            "image": null,
          },
        },
        "paragraphs": [
          {
            "content": {
              "icon": null,
              "title": {
                "type": "left",
                "text": "No es dinero adicional",
                "backgroundColor": "#fff",
                "color": "#7b3eff",
              },
              "text": {
                "text": "Un crédito es un préstamo que tienes que pagar. Así que NO es dinero adicional que puedes gastar 'gratis' cada més.",
                "color": "#fff"
              },
            },
          },
          {
            "content": {
              "icon": null,
              "title": {
                "type": "left",
                "text": "No es una extensión de tu nómina",
                "backgroundColor": "#fff",
                "color": "#7b3eff",
              },
              "text": {
                "text": "Un crédito NO es un ingreso extra que puedes usar una vez que gastes tu nómina.",
                "color": "#fff"
              },
            },
          },
        ]
      },
      {
        "title": {
          "type": "iconText",
          "content": {
            "text": {
              "text": "¿Para qué me sirve un crédito?",
              "color": "#fff",
            },
            "icon": null,
          },
        },
        "background": {
          "type": "image",
          "content": {
            "solidColor": null,
            "image": {
              "uri": "https://usa.visa.com/dam/VCOM/global/support-legal/images/holding-card-640x640.jpg",
            },
          },
        },
        "paragraphs": [
          {
            "content": {
              "icon": {
                "uri": "https://res.cloudinary.com/crecy-io/image/upload/f_auto,q_auto/v1604014175/app/Crecy%20icons%20new%20dimensions/crecy_icons_paycheck_advances_green_icon_ready_istaq2.png",
              },
              "title": {
                "type": "center",
                "text": "Cubrir un gasto urgente",
                "backgroundColor": "#fff",
                "color": "#fff",
              },
              "text": {
                "text": "Por ejemplo, pagar por una consulta médica",
                "color": "#fff"
              },
            },
          },
          {
            "content": {
              "icon": {
                "uri": "https://res.cloudinary.com/crecy-io/image/upload/f_auto,q_auto/v1604014175/app/Crecy%20icons%20new%20dimensions/crecy_icons_paycheck_advances_green_icon_ready_istaq2.png",
              },
              "title": {
                "type": "center",
                "text": "Construir un patrimonio",
                "backgroundColor": "#fff",
                "color": "#fff",
              },
              "text": {
                "text": "Comprar una casa nueva o hacer unas remodelaciones en la tuya.",
                "color": "#fff"
              },
            },
          },
          {
            "content": {
              "icon": {
                "uri": "https://res.cloudinary.com/crecy-io/image/upload/f_auto,q_auto/v1604014175/app/Crecy%20icons%20new%20dimensions/crecy_icons_paycheck_advances_green_icon_ready_istaq2.png",
              },
              "title": {
                "type": "center",
                "text": "Comprar bienes duraderos",
                "backgroundColor": "#fff",
                "color": "#fff",
              },
              "text": {
                "text": "Por ejemplo, puedes comprar una lavadora que sería muy cara para comprar de contado.",
                "color": "#fff"
              },
            },
          },
        ]
      }
    ]
  }
}